   __________   ______                 __    ___
  / ____/  _/  / ____/________ _____  / /_  /   |  ____  ____
 / /    / /   / / __/ ___/ __ `/ __ \/ __ \/ /| | / __ \/ __ \
/ /____/ /   / /_/ / /  / /_/ / /_/ / / / / ___ |/ /_/ / /_/ /
\____/___/   \____/_/   \__,_/ .___/_/ /_/_/  |_/ .___/ .___/
                            /_/                /_/   /_/